test Ames
…
ridge_tune %>%
    collect_metrics()

## # A tibble: 100 x 7
##      penalty .metric .estimator      mean     n   std_err .config              
##        <dbl> <chr>   <chr>          <dbl> <int>     <dbl> <chr>                
##  1 0.00001   rmse    standard   27885.       10 2093.     Preprocessor1_Model01
##  2 0.00001   rsq     standard       0.874    10    0.0181 Preprocessor1_Model01
##  3 0.0000160 rmse    standard   27885.       10 2093.     Preprocessor1_Model02
##  4 0.0000160 rsq     standard       0.874    10    0.0181 Preprocessor1_Model02
##  5 0.0000256 rmse    standard   27885.       10 2093.     Preprocessor1_Model03
##  6 0.0000256 rsq     standard       0.874    10    0.0181 Preprocessor1_Model03
##  7 0.0000409 rmse    standard   27885.       10 2093.     Preprocessor1_Model04
##  8 0.0000409 rsq     standard       0.874    10    0.0181 Preprocessor1_Model04
##  9 0.0000655 rmse    standard   27885.       10 2093.     Preprocessor1_Model05
## 10 0.0000655 rsq     standard       0.874    10    0.0181 Preprocessor1_Model05
## # ... with 90 more rows
…
